{
  "_type" : "configuration",
  "waypoints" : [],
  "cleanSession" : true,
  "clientId" : "pixel4a",
  "cmd" : true,
  "deviceId" : "pixel4a",
  "host" : "<aws iot endpoint>",
  "ignoreInaccurateLocations" : 0,
  "ignoreStaleLocations" : 0,
  "keepalive" : 900,
  "locatorDisplacement" : 200,
  "locatorInterval" : 180,
  "mode" : 0,
  "monitoring" : 1,
  "mqttProtocolLevel" : 4,
  "password" : "<mqtt device password>",
  "port" : 443,
  "pubQos" : 0,
  "pubRetain" : false,
  "pubTopicBase" : "owntracks/%u/%d",
  "sub" : true,
  "subQos" : 0,
  "subTopic" : "owntracks/rockettman/+/cmd",
  "tid" : "AB",
  "tls" : true,
  "username" : "rockettman",
  "ws" : true,

  "autostartOnBoot*" : true,
  "locatorPriority*" : 2,
  "notificationLocation*" : false,
  "opencageApiKey*" : "",
  "ping*" : 30,
  "*pubExtendedData*" : true,
  "remoteConfiguration*" : false,

  "*_build*" : 420412000,
  "*connectionTimeoutSeconds*" : 30,
  "*debugLog*" : true,
  "*enableMapRotation*" : false,
  "*experimentalFeatures*" : [ ],
  "*fusedRegionDetection*" : true,
  "*info*" : true,
  "*mapLayerStyle*" : "GoogleMapDefault",
  "*moveModeLocatorInterval*" : 10,
  "*notificationEvents*" : true,
  "*notificationGeocoderErrors*" : true,
  "*notificationHigherPriority*" : false,
  "*osmTileScaleFactor*" : 1.0,
  "*pegLocatorFastestIntervalToInterval*" : false,
  "*reverseGeocodeProvider*" : "Device",
  "*showRegionsOnMap*" : true,
  "*theme*" : 2,
  "*tlsCaCrt*" : "AmazonRootCA1.pem.crt",
  "*tlsClientCrt*" : "",
  "tlsClientCrtPassword*" : ""
}
